{
  "composer.ele.acc": "Accuracy",
  "composer.ele.combo": "Combo",
  "composer.ele.hold": "Hold",
  "composer.ele.hp": "HP Gauge",
  "composer.ele.judge": "Judgement",
  "composer.ele.mp": "Realtime Ranking",
  "composer.ele.note": "Note",
  "composer.ele.pause": "Pause Button",
  "composer.ele.score": "Score",
  "composer.err.jpg": "Please select an image file less than 1Mb",
  "composer.info.creator": "Creator",
  "composer.info.desc": "Description",
  "composer.info.name": "Skin Name",
  "composer.info.path": "Local Path",
  "composer.label.ele": "Element Metadata",
  "composer.label.info": "Skin Metadata",
  "config.bind.tip": "Also access Key Binding from Setting",
  "config.exp.cube6k": "Play 6K As Cube",
  "config.play": "Access from Play - Pause - Setting⚙",
  "config.prelude": "Skip Prelude",
  "edit.err.fatal": "Can not edit this file",
  "edit.err.toolong": "Meta that is too long is not saved",
  "edit.tip.open": "Open",
  "edit.tip.play": "Play",
  "edit.tip.save": "Save",
  "import.error": "Failed",
  "import.file": "Files Received:",
  "import.finish": "Finish",
  "import.init": "Wait to Start",
  "import.noip": "No IP (Not in WIFI/LAN)",
  "import.run": "Working",
  "import.start": "Start",
  "import.title": "Share Server",
  "play.config.cube.init": "Enable Incubation Animation",
  "play.config.graphic.tip": "Keep it to 0 if you don't know the meaning",
  "play.config.light": "Hit Light Transparency",
  "skin.local.beta": "Skin support is in BETA",
  "skin.local.create": "Skin Composer",
  "top.tip.collect": "Collection",
  "top.tip.dl": "Download",
  "top.tip.import": "Import",
  "top.tip.logout": "Logout",
  "top.tip.mod": "Mod",
  "top.tip.mode": "Mode",
  "top.tip.search": "Search",
  "top.tip.selectok": "Done",
  "top.tip.setting": "Setting",
  "top.tip.sort": "Sort"
}